<svg width="26" height="25" viewBox="0 0 26 25" fill="none" xmlns="http://www.w3.org/2000/svg">
<path d="M11.0464 0.652153C11.6005 0.23002 12.2892 0 12.9991 0C13.709 0 14.3977 0.23002 14.9518 0.652153L24.3268 7.78531C25.0679 8.34917 25.5 9.20345 25.5 10.107V22.0279C25.5 22.8161 25.1708 23.5721 24.5847 24.1295C23.9987 24.6869 23.2038 25 22.375 25H16.125C15.7698 25 15.4291 24.8658 15.178 24.6269C14.9268 24.388 14.7857 24.064 14.7857 23.7262V14.8098H11.2143V23.7262C11.2143 24.064 11.0732 24.388 10.822 24.6269C10.5709 24.8658 10.2302 25 9.875 25H3.625C2.7962 25 2.00134 24.6869 1.41529 24.1295C0.82924 23.5721 0.5 22.8161 0.5 22.0279V10.1053C0.5 9.20345 0.932143 8.34917 1.67321 7.78531L11.0464 0.652153ZM13.2786 2.64095C13.1995 2.58087 13.1012 2.54814 13 2.54814C12.8988 2.54814 12.8005 2.58087 12.7214 2.64095L3.34643 9.7741C3.29391 9.81399 3.25153 9.86465 3.22247 9.92229C3.1934 9.97992 3.1784 10.0431 3.17857 10.107V22.0279C3.17857 22.2622 3.37857 22.4524 3.625 22.4524H8.53572V13.536C8.53572 13.1982 8.67682 12.8742 8.92798 12.6353C9.17915 12.3964 9.5198 12.2622 9.875 12.2622H16.125C16.4802 12.2622 16.8209 12.3964 17.072 12.6353C17.3232 12.8742 17.4643 13.1982 17.4643 13.536V22.4524H22.375C22.4934 22.4524 22.607 22.4077 22.6907 22.3281C22.7744 22.2485 22.8214 22.1405 22.8214 22.0279V10.1053C22.8213 10.0416 22.8062 9.97884 22.7771 9.92152C22.7481 9.86419 22.7059 9.81381 22.6536 9.7741L13.2786 2.64095Z" fill="#C0C9D7"/>
</svg>
