<svg width="26" height="25" viewBox="0 0 26 25" fill="none" xmlns="http://www.w3.org/2000/svg">
<path d="M0.5 1.37917C0.5 0.618056 1.11806 0 1.87917 0H24.1208C24.8819 0 25.5 0.618056 25.5 1.37917V23.6208C25.4996 23.9865 25.3542 24.3371 25.0956 24.5956C24.8371 24.8542 24.4865 24.9996 24.1208 25H1.87917C1.51339 25 1.16259 24.8547 0.903949 24.5961C0.645305 24.3374 0.5 23.9866 0.5 23.6208V1.37917ZM3.27778 2.77778V22.2222H22.7222V2.77778H3.27778ZM11.0861 7.52083L17.8625 12.0375C17.9387 12.0882 18.0012 12.157 18.0444 12.2377C18.0876 12.3183 18.1103 12.4085 18.1103 12.5C18.1103 12.5915 18.0876 12.6817 18.0444 12.7623C18.0012 12.843 17.9387 12.9118 17.8625 12.9625L11.0847 17.4792C11.0012 17.5346 10.9041 17.5663 10.804 17.571C10.7038 17.5758 10.6043 17.5533 10.5158 17.506C10.4274 17.4588 10.3534 17.3884 10.3017 17.3025C10.2501 17.2166 10.2226 17.1183 10.2222 17.0181V7.98194C10.2224 7.88146 10.2498 7.78291 10.3016 7.69678C10.3534 7.61065 10.4275 7.54018 10.5162 7.49286C10.6048 7.44555 10.7046 7.42316 10.805 7.42808C10.9054 7.43301 11.0025 7.46506 11.0861 7.52083Z" fill="#C0C9D7"/>
</svg>
