<svg width="64" height="64" viewBox="0 0 64 64" fill="none" xmlns="http://www.w3.org/2000/svg">
<path d="M31.7998 62C48.3998 62 61.7998 48.6 61.7998 32H1.7998C1.7998 48.6 15.1998 62 31.7998 62Z" fill="#F9F9F9"/>
<path d="M31.7998 2C15.1998 2 1.7998 15.4 1.7998 32H61.7998C61.7998 15.4 48.3998 2 31.7998 2Z" fill="#ED4C5C"/>
</svg>
