<svg width="30" height="30" viewBox="0 0 30 30" fill="none" xmlns="http://www.w3.org/2000/svg">
<path d="M0.00209618 10.7259C10.0141 10.7259 19.9858 10.7259 29.9987 10.7259C29.9987 10.8556 29.9987 10.9737 29.9987 11.0926C29.9987 16.2811 29.9996 21.4696 29.9987 26.6581C29.9987 28.6279 28.6264 29.9957 26.6503 29.9957C18.8846 29.9966 11.118 29.9966 3.35224 29.9957C1.37973 29.9957 0.00299074 28.6234 0.00299074 26.6581C0.00209618 21.4696 0.00299074 16.2811 0.00299074 11.0926C0.00209618 10.9826 0.00209618 10.8717 0.00209618 10.7259Z" fill="#C1C1C1"/>
<path d="M9.64192 2.12999C13.2264 2.12999 16.7698 2.12999 20.3588 2.12999C20.3588 1.78111 20.3561 1.43939 20.3597 1.09856C20.3651 0.466101 20.8106 0.00450493 21.4153 3.21019e-05C22.037 -0.00444072 22.4923 0.458944 22.4977 1.1075C22.5004 1.44028 22.4986 1.77217 22.4986 2.14252C22.6444 2.14252 22.7634 2.14252 22.8824 2.14252C24.1768 2.14252 25.4704 2.13983 26.7648 2.14341C28.5817 2.14878 29.9897 3.55056 29.9978 5.36027C30.0022 6.41764 29.9986 7.47502 29.9986 8.55029C19.992 8.55029 10.0132 8.55029 0.00297667 8.55029C0.00297667 7.45713 -0.00686355 6.37828 0.00923862 5.29944C0.0137114 5.00244 0.0611234 4.69739 0.144318 4.41292C0.531665 3.08628 1.78137 2.15146 3.16437 2.1443C4.56973 2.13715 5.97599 2.14162 7.38135 2.14073C7.40372 2.14073 7.42519 2.13536 7.50212 2.12462C7.50212 1.80526 7.50122 1.47606 7.50212 1.14686C7.5048 0.465206 7.94403 -0.00175703 8.57738 3.21019e-05C9.20448 0.00182123 9.63923 0.475046 9.64192 1.15939C9.64281 1.4707 9.64192 1.78201 9.64192 2.12999Z" fill="#C1C1C1"/>
</svg>
